New tools for visualising and explaining multivariate spatio-temporal data
…
If you have worked with spatial data in R, you will probably know about the sf package. In an oversimplified term, the package uses nested list to wrap up coordinates into a special column, geom. The package also connects to external libraries that allow us to do geospatial operations.

On the other hand, we have tsibble that arranges time series data into a long form with explicit column for the time variable.

Australian weather station data

stations

# A tibble: 30 × 6
   id            lat  long  elev name                       wmo_id
   <chr>       <dbl> <dbl> <dbl> <chr>                       <dbl>
 1 ASN00060139 -31.4  153.   4.2 port macquarie airport aws  94786
 2 ASN00068228 -34.4  151.  10   bellambi aws                94749
 3 ASN00017123 -28.1  140.  37.8 moomba airport              95481
 4 ASN00081049 -36.4  145. 114   tatura inst sustainable ag  95836
 5 ASN00018201 -32.5  138.  14   port augusta aero           95666
 6 ASN00012314 -27.8  121. 497   leinster aero               95448
 7 ASN00036026 -24.3  144. 203   isisford post office        94345
 8 ASN00024024 -34.4  141.  30.1 loxton research centre      94682
 9 ASN00026095 -37.0  140.  17   cape jaffa (the limestone)  94813
10 ASN00003057 -16.5  123.   7   cygnet bay                  94201
# … with 20 more rows
…
ts

# A tibble: 10,632 × 5
   id          date        prcp  tmax  tmin
   <chr>       <date>     <dbl> <dbl> <dbl>
 1 ASN00003057 2020-01-01     0  36.7  26.9
 2 ASN00003057 2020-01-02    41  34.2  24  
 3 ASN00003057 2020-01-03     0  35    25.4
 4 ASN00003057 2020-01-04    40  29.1  25.4
 5 ASN00003057 2020-01-05  1640  27.3  24.3
 6 ASN00003057 2020-01-06  1832  29.2  23.2
 7 ASN00003057 2020-01-07    42  36    21  
 8 ASN00003057 2020-01-08   300  31.5  25  
 9 ASN00003057 2020-01-09    90  32.2  25.3
10 ASN00003057 2020-01-10     0  34    25.9
# … with 10,622 more rows
…
